module lambda.functions

go 1.17

require (
	github.com/aws/aws-lambda-go v1.28.0
	github.com/aws/aws-sdk-go-v2/service/eventbridge v1.13.0
	github.com/aws/jsii-runtime-go v1.52.1
)

require (
	github.com/Masterminds/semver/v3 v3.1.1 // indirect
	github.com/aws/aws-sdk-go-v2 v1.13.0 // indirect
	github.com/aws/aws-sdk-go-v2/config v1.13.1 // indirect
	github.com/aws/aws-sdk-go-v2/credentials v1.8.0 // indirect
	github.com/aws/aws-sdk-go-v2/feature/ec2/imds v1.10.0 // indirect
	github.com/aws/aws-sdk-go-v2/internal/configsources v1.1.4 // indirect
	github.com/aws/aws-sdk-go-v2/internal/endpoints/v2 v2.2.0 // indirect
	github.com/aws/aws-sdk-go-v2/internal/ini v1.3.5 // indirect
	github.com/aws/aws-sdk-go-v2/service/internal/presigned-url v1.7.0 // indirect
	github.com/aws/aws-sdk-go-v2/service/sso v1.9.0 // indirect
	github.com/aws/aws-sdk-go-v2/service/sts v1.14.0 // indirect
	github.com/aws/smithy-go v1.10.0 // indirect
)
